image_name, label
66972.jpg,patterned
66981.jpg,patterned
66970.jpg,patterned
66971.jpg,solid
66973.jpg,patterned
67849.jpg,colourblock
67838.jpg,striped
67827.jpg,abstract
64505.jpg,melange
64506.jpg,solid
64507.jpg,solid
64794.jpg,abstract
64795.jpg,abstract
64797.jpg,printed
64798.jpg,floral
64783.jpg,printed
64784.jpg,printed
66983.jpg,patterned
66984.jpg,patterned
66982.jpg,patterned
65419.jpg,patterned
65417.jpg,colourblock
66247.jpg,checked
66246.jpg,checked
66249.jpg,checked
66250.jpg,checked
67432.jpg,melange
67434.jpg,patterned
67435.jpg,melange
67423.jpg,patterned
67431.jpg,melange
66180.jpg,graphic
66182.jpg,graphic
66181.jpg,abstract
66170.jpg,patterned
66169.jpg,patterned
66171.jpg,abstract
65408.jpg,striped
65418.jpg,striped
65406.jpg,striped
65407.jpg,striped
66248.jpg,solid
67670.jpg,polka dots
67671.jpg,polka dots
64758.jpg,printed
67782.jpg,colourblock
67785.jpg,abstract
67674.jpg,polka dots
67672.jpg,polka dots
67673.jpg,polka dots
2534_1.jpg,printed
2330_1.jpg,colourblock
2320_1.jpg,colourblock
2331_1.jpg,polka dots
2321_1.jpg,solid
2328_1.jpg,colourblock
2329_1.jpg,colourblock
2319_1.jpg,colourblock
2317_1.jpg,typography
2318_1.jpg,colourblock
2306_1.jpg,abstract
2323_1.jpg,abstract
2546_1.jpg,solid
2545_1.jpg,melange
2535_1.jpg,colourblock
2332_1.jpg,abstract
2333_1.jpg,abstract